{
  "type": "FeatureCollection",
  "features": [
    {
      "type": "Feature",
      "properties": {
          "Nombre_de_granja":"Virtualgreenfarm",
          "Nombre_agricultor":"Angie Valentina Vargas Monroy",
          "Tipo_de_planta":"Frijol",
          "Nombre_cientifico":"Phaseolus vulgaris",
          "Fecha_de_plantacion":"14/12/2020",
          "Humedad_relativa":"15%",
          "Familia":"Leguminosae",
          "Genero":"Phaseolus",
          "Estado":"Excelente",
          "Temperatura_optima":"18°C-21°C ",
          "PH_del_suelo":"Entre 5,5 y 6,5",
          "Piso termico":"Templado y calido",
          "Dias":"49",
          "Descripcion":"",
          "Foto":"Dia 42.jpeg",
          "Pagina":"https://valentinavargas30.gitlab.io/proyecto/20192025154.JSON"
      },
      "geometry": {
        "type": "Point",
        "coordinates": [
            74.154539,
            4.630083
          ]
      }
    },
    {
        "type":"Feature",
        "properties":{},
        "geometry":{
            "type":"Circule",
            "coordinates":[
             -74.154539,
             4.630083
            ]
        }
    },
    {
        "type":"Feature",
        "properties":{},
        "geometry":{
            "type":"Polygon",
            "coordinates":[
              [
                  [
                    -74.15445864200592,
                    4.629909449647802
                  ],
                  [
                    -74.15421724319458,
                    4.630211550183378
                  ],
                  [
                    -74.15459543466568,
                    4.63052701786159
                  ],
                  [
                    -74.15482342243195,
                    4.63025967238067
                  ],
                  [
                    -74.15445864200592,
                    4.629909449647802
                  ]
                ]
              ]
        }
    }
  ]
} 
